<?xml version="1.0" standalone="no"?>
<!DOCTYPE svg PUBLIC "-//W3C//DTD SVG 20010904//EN"
 "http://www.w3.org/TR/2001/REC-SVG-20010904/DTD/svg10.dtd">
<svg version="1.0" xmlns="http://www.w3.org/2000/svg"
 width="612.000000pt" height="612.000000pt" viewBox="0 0 612.000000 612.000000"
 preserveAspectRatio="xMidYMid meet">
<metadata>
Created by potrace 1.11, written by Peter Selinger 2001-2013
</metadata>
<g transform="translate(0.000000,612.000000) scale(0.100000,-0.100000)"
fill="#000000" stroke="none">
<path d="M4180 6095 c-7 -8 -18 -15 -25 -15 -18 0 -72 -55 -92 -94 -22 -42
-25 -131 -5 -181 8 -22 43 -68 76 -102 34 -34 76 -77 95 -97 l34 -35 -947
-947 -947 -947 -542 -1 c-633 -1 -612 1 -707 -95 -99 -102 -121 -229 -61 -353
27 -55 82 -115 453 -485 233 -232 442 -442 466 -466 l43 -44 -103 -100 c-57
-56 -137 -134 -179 -174 -42 -41 -179 -173 -304 -294 -125 -121 -255 -246
-289 -279 -638 -613 -806 -781 -806 -806 0 -5 -4 -10 -8 -10 -13 0 -106 -147
-155 -245 -43 -85 -89 -205 -90 -232 0 -7 -3 -13 -6 -13 -4 0 -8 -11 -9 -24
-2 -23 0 -24 36 -14 207 54 453 183 617 322 55 47 101 90 366 347 76 74 432
417 574 554 281 271 531 513 592 573 41 40 78 72 84 70 5 -2 188 -181 407
-398 363 -362 402 -397 453 -416 147 -55 323 9 392 142 36 70 38 108 39 648
l0 531 947 947 947 947 94 -94 c102 -101 147 -127 221 -127 164 -1 273 176
199 321 -21 42 -1604 1630 -1664 1670 -31 20 -52 26 -111 28 -54 2 -76 -2 -85
-12z"/>
</g>
</svg>
